<svg xmlns="http://www.w3.org/2000/svg" viewBox="0 0 100 100" width="300px">
  <path id="stem" fill="goldenrod" d="M56,3 55,10 53,10 52,2.5 z"/>
  <path id="curve" fill="yellow" d="M53,10 Q54.5,50 15,72 L15,75 Q70,70 55,10 Z"/>
</svg>
